{"data":[{"id":50,"process_category_id":"3","user_id":1,"description":"Opening a new customer account","name":"Account Opening","cancel_screen_id":null,"request_detail_screen_id":null,"status":"ACTIVE","is_valid":1,"package_key":null,"pause_timer_start":0,"deleted_at":null,"created_at":"2020-01-27T20:34:02+00:00","updated_at":"2020-03-02T20:58:20+00:00","start_events":[{"id":"node_4","name":"Start","ownerProcessId":"ProcessId","eventDefinitions":[],"ownerProcessName":"ProcessName"}],"warnings":null,"self_service_tasks":[],"has_timer_start_events":false,"categories":[{"id":3,"name":"Banking","status":"ACTIVE","is_system":0,"created_at":"2019-03-07T08:34:23+00:00","updated_at":"2020-01-28T20:28:17+00:00","pivot":{"assignable_id":50,"category_id":3,"category_type":"ProcessMaker\\Models\\ProcessCategory"}}],"category":{"id":3,"name":"Banking","status":"ACTIVE","is_system":0,"created_at":"2019-03-07T08:34:23+00:00","updated_at":"2020-01-28T20:28:17+00:00"},"user":{"id":1,"email":"jermain.kihn@schowalter.com","firstname":"Frank","lastname":"Rizzo","username":"admin","status":"ACTIVE","address":"2394 Feeney Stream Apt. 844","city":"West Raymond","state":null,"postal":"09425","country":null,"phone":"+1.545.825.4708","fax":null,"cell":null,"title":null,"birthdate":null,"timezone":"America\/Los_Angeles","datetime_format":"m\/d\/Y H:i","language":"en","meta":null,"is_administrator":true,"expires_at":null,"loggedin_at":"2020-04-14 16:11:59","remember_token":"gJ3Fh5M43IlrW7r9znVteXKf9KVG1d79bo7AAWHhpiFvSxyTmmPVfPPR91tj","created_at":"2020-01-28T17:23:59+00:00","updated_at":"2020-04-14T16:11:59+00:00","deleted_at":null,"fullname":"Frank Rizzo","avatar":"","media":[]}},{"id":31,"process_category_id":"2","user_id":1,"description":"just for practice","name":"Adam Process EX","cancel_screen_id":null,"request_detail_screen_id":null,"status":"ACTIVE","is_valid":1,"package_key":null,"pause_timer_start":0,"deleted_at":null,"created_at":"2020-02-11T16:31:17+00:00","updated_at":"2020-02-11T20:29:02+00:00","start_events":[{"id":"node_7","name":"Start Event","ownerProcessId":"ProcessId","eventDefinitions":[],"ownerProcessName":"ProcessName"}],"warnings":null,"self_service_tasks":[],"has_timer_start_events":false,"categories":[{"id":2,"name":"Uncategorized","status":"ACTIVE","is_system":0,"created_at":"2020-01-28T17:24:00+00:00","updated_at":"2020-01-28T17:24:00+00:00","pivot":{"assignable_id":31,"category_id":2,"category_type":"ProcessMaker\\Models\\ProcessCategory"}}],"category":{"id":2,"name":"Uncategorized","status":"ACTIVE","is_system":0,"created_at":"2020-01-28T17:24:00+00:00","updated_at":"2020-01-28T17:24:00+00:00"},"user":{"id":1,"email":"jermain.kihn@schowalter.com","firstname":"Frank","lastname":"Rizzo","username":"admin","status":"ACTIVE","address":"2394 Feeney Stream Apt. 844","city":"West Raymond","state":null,"postal":"09425","country":null,"phone":"+1.545.825.4708","fax":null,"cell":null,"title":null,"birthdate":null,"timezone":"America\/Los_Angeles","datetime_format":"m\/d\/Y H:i","language":"en","meta":null,"is_administrator":true,"expires_at":null,"loggedin_at":"2020-04-14 16:11:59","remember_token":"gJ3Fh5M43IlrW7r9znVteXKf9KVG1d79bo7AAWHhpiFvSxyTmmPVfPPR91tj","created_at":"2020-01-28T17:23:59+00:00","updated_at":"2020-04-14T16:11:59+00:00","deleted_at":null,"fullname":"Frank Rizzo","avatar":"","media":[]}},{"id":32,"process_category_id":"2","user_id":1,"description":"for practice","name":"Adam SubProcess EX","cancel_screen_id":null,"request_detail_screen_id":null,"status":"ACTIVE","is_valid":1,"package_key":null,"pause_timer_start":0,"deleted_at":null,"created_at":"2020-02-11T16:55:58+00:00","updated_at":"2020-02-11T16:58:24+00:00","start_events":[{"id":"node_1","name":"Start Event","ownerProcessId":"ProcessId","eventDefinitions":[],"ownerProcessName":"ProcessName"}],"warnings":null,"self_service_tasks":[],"has_timer_start_events":false,"categories":[{"id":2,"name":"Uncategorized","status":"ACTIVE","is_system":0,"created_at":"2020-01-28T17:24:00+00:00","updated_at":"2020-01-28T17:24:00+00:00","pivot":{"assignable_id":32,"category_id":2,"category_type":"ProcessMaker\\Models\\ProcessCategory"}}],"category":{"id":2,"name":"Uncategorized","status":"ACTIVE","is_system":0,"created_at":"2020-01-28T17:24:00+00:00","updated_at":"2020-01-28T17:24:00+00:00"},"user":{"id":1,"email":"jermain.kihn@schowalter.com","firstname":"Frank","lastname":"Rizzo","username":"admin","status":"ACTIVE","address":"2394 Feeney Stream Apt. 844","city":"West Raymond","state":null,"postal":"09425","country":null,"phone":"+1.545.825.4708","fax":null,"cell":null,"title":null,"birthdate":null,"timezone":"America\/Los_Angeles","datetime_format":"m\/d\/Y H:i","language":"en","meta":null,"is_administrator":true,"expires_at":null,"loggedin_at":"2020-04-14 16:11:59","remember_token":"gJ3Fh5M43IlrW7r9znVteXKf9KVG1d79bo7AAWHhpiFvSxyTmmPVfPPR91tj","created_at":"2020-01-28T17:23:59+00:00","updated_at":"2020-04-14T16:11:59+00:00","deleted_at":null,"fullname":"Frank Rizzo","avatar":"","media":[]}},{"id":48,"process_category_id":"2","user_id":1,"description":"fdsfasf","name":"Add contact","cancel_screen_id":null,"request_detail_screen_id":null,"status":"ACTIVE","is_valid":1,"package_key":null,"pause_timer_start":0,"deleted_at":null,"created_at":"2020-02-26T19:55:23+00:00","updated_at":"2020-02-26T19:55:46+00:00","start_events":[{"id":"node_1","name":"Start Event","ownerProcessId":"ProcessId","eventDefinitions":[],"ownerProcessName":"ProcessName"}],"warnings":null,"self_service_tasks":[],"has_timer_start_events":false,"categories":[{"id":2,"name":"Uncategorized","status":"ACTIVE","is_system":0,"created_at":"2020-01-28T17:24:00+00:00","updated_at":"2020-01-28T17:24:00+00:00","pivot":{"assignable_id":48,"category_id":2,"category_type":"ProcessMaker\\Models\\ProcessCategory"}}],"category":{"id":2,"name":"Uncategorized","status":"ACTIVE","is_system":0,"created_at":"2020-01-28T17:24:00+00:00","updated_at":"2020-01-28T17:24:00+00:00"},"user":{"id":1,"email":"jermain.kihn@schowalter.com","firstname":"Frank","lastname":"Rizzo","username":"admin","status":"ACTIVE","address":"2394 Feeney Stream Apt. 844","city":"West Raymond","state":null,"postal":"09425","country":null,"phone":"+1.545.825.4708","fax":null,"cell":null,"title":null,"birthdate":null,"timezone":"America\/Los_Angeles","datetime_format":"m\/d\/Y H:i","language":"en","meta":null,"is_administrator":true,"expires_at":null,"loggedin_at":"2020-04-14 16:11:59","remember_token":"gJ3Fh5M43IlrW7r9znVteXKf9KVG1d79bo7AAWHhpiFvSxyTmmPVfPPR91tj","created_at":"2020-01-28T17:23:59+00:00","updated_at":"2020-04-14T16:11:59+00:00","deleted_at":null,"fullname":"Frank Rizzo","avatar":"","media":[]}},{"id":44,"process_category_id":"2","user_id":1,"description":"add new companies","name":"add new companies","cancel_screen_id":null,"request_detail_screen_id":null,"status":"ACTIVE","is_valid":1,"package_key":null,"pause_timer_start":0,"deleted_at":null,"created_at":"2020-02-18T20:57:03+00:00","updated_at":"2020-02-18T21:34:53+00:00","start_events":[{"id":"node_2","name":"Start Event","assignment":"user","assignedUsers":"1","assignedGroups":"","ownerProcessId":"ProcessId","eventDefinitions":[],"ownerProcessName":"ProcessName"}],"warnings":null,"self_service_tasks":[],"has_timer_start_events":false,"categories":[{"id":2,"name":"Uncategorized","status":"ACTIVE","is_system":0,"created_at":"2020-01-28T17:24:00+00:00","updated_at":"2020-01-28T17:24:00+00:00","pivot":{"assignable_id":44,"category_id":2,"category_type":"ProcessMaker\\Models\\ProcessCategory"}}],"category":{"id":2,"name":"Uncategorized","status":"ACTIVE","is_system":0,"created_at":"2020-01-28T17:24:00+00:00","updated_at":"2020-01-28T17:24:00+00:00"},"user":{"id":1,"email":"jermain.kihn@schowalter.com","firstname":"Frank","lastname":"Rizzo","username":"admin","status":"ACTIVE","address":"2394 Feeney Stream Apt. 844","city":"West Raymond","state":null,"postal":"09425","country":null,"phone":"+1.545.825.4708","fax":null,"cell":null,"title":null,"birthdate":null,"timezone":"America\/Los_Angeles","datetime_format":"m\/d\/Y H:i","language":"en","meta":null,"is_administrator":true,"expires_at":null,"loggedin_at":"2020-04-14 16:11:59","remember_token":"gJ3Fh5M43IlrW7r9znVteXKf9KVG1d79bo7AAWHhpiFvSxyTmmPVfPPR91tj","created_at":"2020-01-28T17:23:59+00:00","updated_at":"2020-04-14T16:11:59+00:00","deleted_at":null,"fullname":"Frank Rizzo","avatar":"","media":[]}},{"id":18,"process_category_id":"2","user_id":1,"description":"Asset Request","name":"Asset Request","cancel_screen_id":null,"request_detail_screen_id":null,"status":"ACTIVE","is_valid":1,"package_key":null,"pause_timer_start":0,"deleted_at":null,"created_at":"2020-02-05T16:09:41+00:00","updated_at":"2020-02-10T16:00:29+00:00","start_events":[{"id":"node_1","name":"Start Event","ownerProcessId":"pmui-2431655795e3ac8327b0e80081390262","eventDefinitions":[],"ownerProcessName":"Asset Request Process"}],"warnings":null,"self_service_tasks":[],"has_timer_start_events":false,"categories":[{"id":2,"name":"Uncategorized","status":"ACTIVE","is_system":0,"created_at":"2020-01-28T17:24:00+00:00","updated_at":"2020-01-28T17:24:00+00:00","pivot":{"assignable_id":18,"category_id":2,"category_type":"ProcessMaker\\Models\\ProcessCategory"}}],"category":{"id":2,"name":"Uncategorized","status":"ACTIVE","is_system":0,"created_at":"2020-01-28T17:24:00+00:00","updated_at":"2020-01-28T17:24:00+00:00"},"user":{"id":1,"email":"jermain.kihn@schowalter.com","firstname":"Frank","lastname":"Rizzo","username":"admin","status":"ACTIVE","address":"2394 Feeney Stream Apt. 844","city":"West Raymond","state":null,"postal":"09425","country":null,"phone":"+1.545.825.4708","fax":null,"cell":null,"title":null,"birthdate":null,"timezone":"America\/Los_Angeles","datetime_format":"m\/d\/Y H:i","language":"en","meta":null,"is_administrator":true,"expires_at":null,"loggedin_at":"2020-04-14 16:11:59","remember_token":"gJ3Fh5M43IlrW7r9znVteXKf9KVG1d79bo7AAWHhpiFvSxyTmmPVfPPR91tj","created_at":"2020-01-28T17:23:59+00:00","updated_at":"2020-04-14T16:11:59+00:00","deleted_at":null,"fullname":"Frank Rizzo","avatar":"","media":[]}},{"id":52,"process_category_id":"3","user_id":1,"description":"ert","name":"ATM Ops","cancel_screen_id":null,"request_detail_screen_id":null,"status":"ACTIVE","is_valid":1,"package_key":null,"pause_timer_start":0,"deleted_at":null,"created_at":"2020-03-09T18:03:57+00:00","updated_at":"2020-03-09T18:04:43+00:00","start_events":[{"id":"node_1","name":"Start Event","ownerProcessId":"ProcessId","eventDefinitions":[],"ownerProcessName":"ProcessName"}],"warnings":null,"self_service_tasks":[],"has_timer_start_events":false,"categories":[{"id":3,"name":"Banking","status":"ACTIVE","is_system":0,"created_at":"2019-03-07T08:34:23+00:00","updated_at":"2020-01-28T20:28:17+00:00","pivot":{"assignable_id":52,"category_id":3,"category_type":"ProcessMaker\\Models\\ProcessCategory"}}],"category":{"id":3,"name":"Banking","status":"ACTIVE","is_system":0,"created_at":"2019-03-07T08:34:23+00:00","updated_at":"2020-01-28T20:28:17+00:00"},"user":{"id":1,"email":"jermain.kihn@schowalter.com","firstname":"Frank","lastname":"Rizzo","username":"admin","status":"ACTIVE","address":"2394 Feeney Stream Apt. 844","city":"West Raymond","state":null,"postal":"09425","country":null,"phone":"+1.545.825.4708","fax":null,"cell":null,"title":null,"birthdate":null,"timezone":"America\/Los_Angeles","datetime_format":"m\/d\/Y H:i","language":"en","meta":null,"is_administrator":true,"expires_at":null,"loggedin_at":"2020-04-14 16:11:59","remember_token":"gJ3Fh5M43IlrW7r9znVteXKf9KVG1d79bo7AAWHhpiFvSxyTmmPVfPPR91tj","created_at":"2020-01-28T17:23:59+00:00","updated_at":"2020-04-14T16:11:59+00:00","deleted_at":null,"fullname":"Frank Rizzo","avatar":"","media":[]}},{"id":9,"process_category_id":"4","user_id":1,"description":"example","name":"Basic PO","cancel_screen_id":null,"request_detail_screen_id":null,"status":"ACTIVE","is_valid":1,"package_key":null,"pause_timer_start":0,"deleted_at":null,"created_at":"2020-01-29T19:35:00+00:00","updated_at":"2020-01-29T19:42:46+00:00","start_events":[{"id":"node_1","name":"Start Event","ownerProcessId":"ProcessId","eventDefinitions":[],"ownerProcessName":"ProcessName"}],"warnings":null,"self_service_tasks":[],"has_timer_start_events":false,"categories":[{"id":4,"name":"Finance","status":"ACTIVE","is_system":0,"created_at":"2020-01-14T21:51:09+00:00","updated_at":"2020-01-29T13:36:14+00:00","pivot":{"assignable_id":9,"category_id":4,"category_type":"ProcessMaker\\Models\\ProcessCategory"}}],"category":{"id":4,"name":"Finance","status":"ACTIVE","is_system":0,"created_at":"2020-01-14T21:51:09+00:00","updated_at":"2020-01-29T13:36:14+00:00"},"user":{"id":1,"email":"jermain.kihn@schowalter.com","firstname":"Frank","lastname":"Rizzo","username":"admin","status":"ACTIVE","address":"2394 Feeney Stream Apt. 844","city":"West Raymond","state":null,"postal":"09425","country":null,"phone":"+1.545.825.4708","fax":null,"cell":null,"title":null,"birthdate":null,"timezone":"America\/Los_Angeles","datetime_format":"m\/d\/Y H:i","language":"en","meta":null,"is_administrator":true,"expires_at":null,"loggedin_at":"2020-04-14 16:11:59","remember_token":"gJ3Fh5M43IlrW7r9znVteXKf9KVG1d79bo7AAWHhpiFvSxyTmmPVfPPR91tj","created_at":"2020-01-28T17:23:59+00:00","updated_at":"2020-04-14T16:11:59+00:00","deleted_at":null,"fullname":"Frank Rizzo","avatar":"","media":[]}},{"id":53,"process_category_id":"2","user_id":1,"description":"test","name":"brian test","cancel_screen_id":null,"request_detail_screen_id":null,"status":"ACTIVE","is_valid":1,"package_key":null,"pause_timer_start":0,"deleted_at":null,"created_at":"2020-03-09T19:07:38+00:00","updated_at":"2020-03-25T14:57:59+00:00","start_events":[{"id":"node_1","name":"Start Event","ownerProcessId":"ProcessId","eventDefinitions":[],"ownerProcessName":"ProcessName","allowInterstitial":"false"}],"warnings":null,"self_service_tasks":[],"has_timer_start_events":false,"categories":[{"id":2,"name":"Uncategorized","status":"ACTIVE","is_system":0,"created_at":"2020-01-28T17:24:00+00:00","updated_at":"2020-01-28T17:24:00+00:00","pivot":{"assignable_id":53,"category_id":2,"category_type":"ProcessMaker\\Models\\ProcessCategory"}}],"category":{"id":2,"name":"Uncategorized","status":"ACTIVE","is_system":0,"created_at":"2020-01-28T17:24:00+00:00","updated_at":"2020-01-28T17:24:00+00:00"},"user":{"id":1,"email":"jermain.kihn@schowalter.com","firstname":"Frank","lastname":"Rizzo","username":"admin","status":"ACTIVE","address":"2394 Feeney Stream Apt. 844","city":"West Raymond","state":null,"postal":"09425","country":null,"phone":"+1.545.825.4708","fax":null,"cell":null,"title":null,"birthdate":null,"timezone":"America\/Los_Angeles","datetime_format":"m\/d\/Y H:i","language":"en","meta":null,"is_administrator":true,"expires_at":null,"loggedin_at":"2020-04-14 16:11:59","remember_token":"gJ3Fh5M43IlrW7r9znVteXKf9KVG1d79bo7AAWHhpiFvSxyTmmPVfPPR91tj","created_at":"2020-01-28T17:23:59+00:00","updated_at":"2020-04-14T16:11:59+00:00","deleted_at":null,"fullname":"Frank Rizzo","avatar":"","media":[]}},{"id":10,"process_category_id":"5","user_id":1,"description":"Building Access","name":"Building Access","cancel_screen_id":null,"request_detail_screen_id":null,"status":"ACTIVE","is_valid":1,"package_key":null,"pause_timer_start":0,"deleted_at":null,"created_at":"2020-01-29T19:35:53+00:00","updated_at":"2020-02-03T19:57:55+00:00","start_events":[{"id":"node_1","name":"Start Event","config":"{\"web_entry\":{\"mode\":\"ANONYMOUS\",\"screen_id\":28,\"completed_action\":\"SCREEN\",\"completed_screen_id\":2,\"completed_url\":null,\"authenticatable_type\":null,\"authenticatable_id\":null}}","ownerProcessId":"ProcessId","eventDefinitions":[],"ownerProcessName":"ProcessName"}],"warnings":null,"self_service_tasks":[],"has_timer_start_events":false,"categories":[{"id":5,"name":"Human Resources","status":"ACTIVE","is_system":0,"created_at":"2019-12-17T14:27:57+00:00","updated_at":"2020-01-29T13:37:29+00:00","pivot":{"assignable_id":10,"category_id":5,"category_type":"ProcessMaker\\Models\\ProcessCategory"}}],"category":{"id":5,"name":"Human Resources","status":"ACTIVE","is_system":0,"created_at":"2019-12-17T14:27:57+00:00","updated_at":"2020-01-29T13:37:29+00:00"},"user":{"id":1,"email":"jermain.kihn@schowalter.com","firstname":"Frank","lastname":"Rizzo","username":"admin","status":"ACTIVE","address":"2394 Feeney Stream Apt. 844","city":"West Raymond","state":null,"postal":"09425","country":null,"phone":"+1.545.825.4708","fax":null,"cell":null,"title":null,"birthdate":null,"timezone":"America\/Los_Angeles","datetime_format":"m\/d\/Y H:i","language":"en","meta":null,"is_administrator":true,"expires_at":null,"loggedin_at":"2020-04-14 16:11:59","remember_token":"gJ3Fh5M43IlrW7r9znVteXKf9KVG1d79bo7AAWHhpiFvSxyTmmPVfPPR91tj","created_at":"2020-01-28T17:23:59+00:00","updated_at":"2020-04-14T16:11:59+00:00","deleted_at":null,"fullname":"Frank Rizzo","avatar":"","media":[]}}],"meta":{"filter":null,"sort_by":"name","sort_order":"asc","count":10,"total_pages":7,"current_page":1,"from":1,"last_page":7,"path":"\/","per_page":10,"to":10,"total":62}}
